…
OK so what we need is in the the_geoms. It’s a list, which means we can
use unnest. Now look at what we have.

``` r
lotsa_buffers_w_swiss_geoms %>%
  st_drop_geometry() %>% 
  unnest_wider(the_geoms) %>%
  select(!geometry) %>% 
  janitor::clean_names() %>% 
  unnest_longer(che_pd_2020_1km_tif)
```

    # A tibble: 152,006 × 3
        name distance che_pd_2020_1km_tif
       <int>    <dbl>               <dbl>
     1     1    10000                583.
     2     1    10000                722.
     3     1    10000                603.
     4     1    10000                467.
     5     1    10000               1042.
     6     1    10000               1073.
     7     1    10000                390.
     8     1    10000                444.
     9     1    10000               1399.
    10     1    10000                935.
    # … with 151,996 more rows
…
