…
fs makes it easy.

``` r
imported_data_collection <- dir_ls(path="./data/importing") %>%
  map_df(read_csv, .id = "file", col_types = cols(.default = "c")) # map applies a function to each record...so if each filename from dir_ls is a record, this applies read_csv to each record. 

imported_data_collection
```

    # A tibble: 1,064 × 20
       file   indic…¹ `2000` `2001` `2002` `2003` `2004` `2005` `2006` `2007` `2008`
       <chr>  <chr>   <chr>  <chr>  <chr>  <chr>  <chr>  <chr>  <chr>  <chr>  <chr> 
     1 ./dat… SP.URB… 41625  42025  42194  42277  42317  42399  42555  42729  42906 
     2 ./dat… SP.URB… 1.664… 0.956… 0.401… 0.196… 0.094… 0.193… 0.367… 0.408… 0.413…
     3 ./dat… SP.POP… 89101  90691  91781  92701  93540  94483  95606  96787  97996 
     4 ./dat… SP.POP… 2.539… 1.768… 1.194… 0.997… 0.900… 1.003… 1.181… 1.227… 1.241…
     5 ./dat… SP.URB… 11555… 11977… 12422… 12883… 13364… 13874… 14402… 14923… 15538…
     6 ./dat… SP.URB… 3.602… 3.655… 3.716… 3.708… 3.736… 3.814… 3.806… 3.613… 4.122…
     7 ./dat… SP.POP… 40160… 41200… 42274… 43380… 44528… 45715… 46950… 48240… 49574…
     8 ./dat… SP.POP… 2.583… 2.589… 2.606… 2.617… 2.644… 2.666… 2.702… 2.747… 2.765…
     9 ./dat… SP.URB… 43147… 43647… 46748… 50618… 52995… 55420… 58282… 59870… 61628…
    10 ./dat… SP.URB… 1.861… 1.153… 6.863… 7.953… 4.588… 4.474… 5.034… 2.688… 2.893…
    # … with 1,054 more rows, 9 more variables: `2009` <chr>, `2010` <chr>,
    #   `2011` <chr>, `2012` <chr>, `2013` <chr>, `2014` <chr>, `2015` <chr>,
    #   `2016` <chr>, `2017` <chr>, and abbreviated variable name ¹​indicator
…
     [1] "file"      "indicator" "2000"      "2001"      "2002"      "2003"     
     [7] "2004"      "2005"      "2006"      "2007"      "2008"      "2009"     
    [13] "2010"      "2011"      "2012"      "2013"      "2014"      "2015"     
    [19] "2016"      "2017"     

Yuck. But we can use clean_names:

``` r
imported_data_collection_fixed <- imported_data_collection %>%
  janitor::clean_names() # Notice here that I used the library name and function name. You can do this if you don't want to load the entire package into memory. 

imported_data_collection_fixed
```

    # A tibble: 1,064 × 20
       file      indic…¹ x2000 x2001 x2002 x2003 x2004 x2005 x2006 x2007 x2008 x2009
       <chr>     <chr>   <chr> <chr> <chr> <chr> <chr> <chr> <chr> <chr> <chr> <chr>
     1 ./data/i… SP.URB… 41625 42025 42194 42277 42317 42399 42555 42729 42906 43079
     2 ./data/i… SP.URB… 1.66… 0.95… 0.40… 0.19… 0.09… 0.19… 0.36… 0.40… 0.41… 0.40…
     3 ./data/i… SP.POP… 89101 90691 91781 92701 93540 94483 95606 96787 97996 99212
     4 ./data/i… SP.POP… 2.53… 1.76… 1.19… 0.99… 0.90… 1.00… 1.18… 1.22… 1.24… 1.23…
     5 ./data/i… SP.URB… 1155… 1197… 1242… 1288… 1336… 1387… 1440… 1492… 1553… 1617…
     6 ./data/i… SP.URB… 3.60… 3.65… 3.71… 3.70… 3.73… 3.81… 3.80… 3.61… 4.12… 4.11…
     7 ./data/i… SP.POP… 4016… 4120… 4227… 4338… 4452… 4571… 4695… 4824… 4957… 5094…
     8 ./data/i… SP.POP… 2.58… 2.58… 2.60… 2.61… 2.64… 2.66… 2.70… 2.74… 2.76… 2.75…
     9 ./data/i… SP.URB… 4314… 4364… 4674… 5061… 5299… 5542… 5828… 5987… 6162… 6443…
    10 ./data/i… SP.URB… 1.86… 1.15… 6.86… 7.95… 4.58… 4.47… 5.03… 2.68… 2.89… 4.44…
    # … with 1,054 more rows, 8 more variables: x2010 <chr>, x2011 <chr>,
    #   x2012 <chr>, x2013 <chr>, x2014 <chr>, x2015 <chr>, x2016 <chr>,
    #   x2017 <chr>, and abbreviated variable name ¹​indicator
…
    Attaching package: 'lubridate'

    The following objects are masked from 'package:base':

        date, intersect, setdiff, union

We can use lubridate to do some nice things.

``` r
flights %>% 
  select(year, month, day, hour, minute) %>% 
  mutate(departure = make_datetime(year, month, day, hour, minute))
```

    # A tibble: 336,776 × 6
        year month   day  hour minute departure          
       <int> <int> <int> <dbl>  <dbl> <dttm>             
     1  2013     1     1     5     15 2013-01-01 05:15:00
     2  2013     1     1     5     29 2013-01-01 05:29:00
     3  2013     1     1     5     40 2013-01-01 05:40:00
     4  2013     1     1     5     45 2013-01-01 05:45:00
     5  2013     1     1     6      0 2013-01-01 06:00:00
     6  2013     1     1     5     58 2013-01-01 05:58:00
     7  2013     1     1     6      0 2013-01-01 06:00:00
     8  2013     1     1     6      0 2013-01-01 06:00:00
     9  2013     1     1     6      0 2013-01-01 06:00:00
    10  2013     1     1     6      0 2013-01-01 06:00:00
    # … with 336,766 more rows

We can easily extract elements of the date.

``` r
flights %>% 
  select(year, month, day, hour, minute) %>% 
  mutate(departure = make_datetime(year, month, day, hour, minute)) %>%
  select(departure) %>%
  mutate(the_year = year(departure),
         the_day = day(departure))
```

    # A tibble: 336,776 × 3
       departure           the_year the_day
       <dttm>                 <dbl>   <int>
     1 2013-01-01 05:15:00     2013       1
     2 2013-01-01 05:29:00     2013       1
     3 2013-01-01 05:40:00     2013       1
     4 2013-01-01 05:45:00     2013       1
     5 2013-01-01 06:00:00     2013       1
     6 2013-01-01 05:58:00     2013       1
     7 2013-01-01 06:00:00     2013       1
     8 2013-01-01 06:00:00     2013       1
     9 2013-01-01 06:00:00     2013       1
    10 2013-01-01 06:00:00     2013       1
    # … with 336,766 more rows
…
flights_dt <- flights %>% 
  filter(!is.na(dep_time), !is.na(arr_time)) %>% 
  mutate(
    dep_time = make_datetime_100(year, month, day, dep_time),
    arr_time = make_datetime_100(year, month, day, arr_time),
    sched_dep_time = make_datetime_100(year, month, day, sched_dep_time),
    sched_arr_time = make_datetime_100(year, month, day, sched_arr_time)
  ) %>% 
  select(origin, dest, ends_with("delay"), ends_with("time"))

flights_dt
```

    # A tibble: 328,063 × 9
       origin dest  dep_delay arr_delay dep_time            sched_dep_time     
       <chr>  <chr>     <dbl>     <dbl> <dttm>              <dttm>             
     1 EWR    IAH           2        11 2013-01-01 05:17:00 2013-01-01 05:15:00
     2 LGA    IAH           4        20 2013-01-01 05:33:00 2013-01-01 05:29:00
     3 JFK    MIA           2        33 2013-01-01 05:42:00 2013-01-01 05:40:00
     4 JFK    BQN          -1       -18 2013-01-01 05:44:00 2013-01-01 05:45:00
     5 LGA    ATL          -6       -25 2013-01-01 05:54:00 2013-01-01 06:00:00
     6 EWR    ORD          -4        12 2013-01-01 05:54:00 2013-01-01 05:58:00
     7 EWR    FLL          -5        19 2013-01-01 05:55:00 2013-01-01 06:00:00
     8 LGA    IAD          -3       -14 2013-01-01 05:57:00 2013-01-01 06:00:00
     9 JFK    MCO          -3        -8 2013-01-01 05:57:00 2013-01-01 06:00:00
    10 LGA    ORD          -2         8 2013-01-01 05:58:00 2013-01-01 06:00:00
    # … with 328,053 more rows, and 3 more variables: arr_time <dttm>,
    #   sched_arr_time <dttm>, air_time <dbl>

You can do simple date comparisons.

``` r
flights_dt %>% 
  mutate(late_departure = difftime(ymd_hms(sched_dep_time), ymd_hms(dep_time), units="secs"))
```

    # A tibble: 328,063 × 10
       origin dest  dep_delay arr_delay dep_time            sched_dep_time     
       <chr>  <chr>     <dbl>     <dbl> <dttm>              <dttm>             
     1 EWR    IAH           2        11 2013-01-01 05:17:00 2013-01-01 05:15:00
     2 LGA    IAH           4        20 2013-01-01 05:33:00 2013-01-01 05:29:00
     3 JFK    MIA           2        33 2013-01-01 05:42:00 2013-01-01 05:40:00
     4 JFK    BQN          -1       -18 2013-01-01 05:44:00 2013-01-01 05:45:00
     5 LGA    ATL          -6       -25 2013-01-01 05:54:00 2013-01-01 06:00:00
     6 EWR    ORD          -4        12 2013-01-01 05:54:00 2013-01-01 05:58:00
     7 EWR    FLL          -5        19 2013-01-01 05:55:00 2013-01-01 06:00:00
     8 LGA    IAD          -3       -14 2013-01-01 05:57:00 2013-01-01 06:00:00
     9 JFK    MCO          -3        -8 2013-01-01 05:57:00 2013-01-01 06:00:00
    10 LGA    ORD          -2         8 2013-01-01 05:58:00 2013-01-01 06:00:00
    # … with 328,053 more rows, and 4 more variables: arr_time <dttm>,
    #   sched_arr_time <dttm>, air_time <dbl>, late_departure <drtn>
…
``` r
my_pattern <- "./data/importing/(\\D\\D\\D).csv"

imported_data_collection_fixed_2 <- imported_data_collection_fixed %>%
  filter(indicator=="SP.POP.TOTL") %>%
  mutate(country_code = str_extract(file, my_pattern, group=1)) %>%
  select(file, country_code, starts_with("x2"))

imported_data_collection_fixed_2
```

    # A tibble: 266 × 20
       file      count…¹ x2000 x2001 x2002 x2003 x2004 x2005 x2006 x2007 x2008 x2009
       <chr>     <chr>   <chr> <chr> <chr> <chr> <chr> <chr> <chr> <chr> <chr> <chr>
     1 ./data/i… ABW     89101 90691 91781 92701 93540 94483 95606 96787 97996 99212
     2 ./data/i… AFE     4016… 4120… 4227… 4338… 4452… 4571… 4695… 4824… 4957… 5094…
     3 ./data/i… AFG     1954… 1968… 2100… 2264… 2355… 2441… 2544… 2590… 2642… 2738…
     4 ./data/i… AFW     2696… 2771… 2849… 2929… 3012… 3098… 3186… 3276… 3368… 3464…
     5 ./data/i… AGO     1639… 1694… 1751… 1812… 1877… 1945… 2016… 2090… 2169… 2250…
     6 ./data/i… ALB     3089… 3060… 3051… 3039… 3026… 3011… 2992… 2970… 2947… 2927…
     7 ./data/i… AND     66097 67820 70849 73907 76933 79826 80221 78168 76055 73852
     8 ./data/i… ARB     2870… 2935… 3000… 3065… 3132… 3205… 3287… 3374… 3466… 3557…
     9 ./data/i… ARE     3275… 3454… 3633… 3813… 3993… 4280… 4898… 5872… 6988… 7992…
    10 ./data/i… ARG     3707… 3748… 3788… 3827… 3866… 3907… 3947… 3987… 4027… 4068…
    # … with 256 more rows, 8 more variables: x2010 <chr>, x2011 <chr>,
    #   x2012 <chr>, x2013 <chr>, x2014 <chr>, x2015 <chr>, x2016 <chr>,
    #   x2017 <chr>, and abbreviated variable name ¹​country_code
…
# Pivot Data

OK. So remember how we imported all that data as character? We need to
convert all those pop fields to integers.

We could write a mutate statement to do each of the years individually.
Or we could pivot the data, making a wide dataset into a long one.

``` r
imported_data_collection_fixed_2 %>%
  pivot_longer(cols=starts_with("x"), names_to = "the_year", values_to = "pop_tot")
```

    # A tibble: 4,788 × 4
       file                     country_code the_year pop_tot
       <chr>                    <chr>        <chr>    <chr>  
     1 ./data/importing/ABW.csv ABW          x2000    89101  
     2 ./data/importing/ABW.csv ABW          x2001    90691  
     3 ./data/importing/ABW.csv ABW          x2002    91781  
     4 ./data/importing/ABW.csv ABW          x2003    92701  
     5 ./data/importing/ABW.csv ABW          x2004    93540  
     6 ./data/importing/ABW.csv ABW          x2005    94483  
     7 ./data/importing/ABW.csv ABW          x2006    95606  
     8 ./data/importing/ABW.csv ABW          x2007    96787  
     9 ./data/importing/ABW.csv ABW          x2008    97996  
    10 ./data/importing/ABW.csv ABW          x2009    99212  
    # … with 4,778 more rows

So now we can just convert that one field to numeric, then pivot it
back.

``` r
imported_data_collection_fixed_3 <- imported_data_collection_fixed_2 %>%
  pivot_longer(cols=starts_with("x"), names_to = "the_year", values_to = "pop_tot") %>%
  mutate(pop_tot_num = as.numeric(pop_tot)) %>%
  select(!pop_tot) %>% # drop the old character field
  pivot_wider(names_from = the_year, values_from = pop_tot_num)

imported_data_collection_fixed_3
```

    # A tibble: 266 × 20
       file   count…¹  x2000  x2001  x2002  x2003  x2004  x2005  x2006  x2007  x2008
       <chr>  <chr>    <dbl>  <dbl>  <dbl>  <dbl>  <dbl>  <dbl>  <dbl>  <dbl>  <dbl>
     1 ./dat… ABW     8.91e4 9.07e4 9.18e4 9.27e4 9.35e4 9.45e4 9.56e4 9.68e4 9.80e4
     2 ./dat… AFE     4.02e8 4.12e8 4.23e8 4.34e8 4.45e8 4.57e8 4.70e8 4.82e8 4.96e8
     3 ./dat… AFG     1.95e7 1.97e7 2.10e7 2.26e7 2.36e7 2.44e7 2.54e7 2.59e7 2.64e7
     4 ./dat… AFW     2.70e8 2.77e8 2.85e8 2.93e8 3.01e8 3.10e8 3.19e8 3.28e8 3.37e8
     5 ./dat… AGO     1.64e7 1.69e7 1.75e7 1.81e7 1.88e7 1.95e7 2.02e7 2.09e7 2.17e7
     6 ./dat… ALB     3.09e6 3.06e6 3.05e6 3.04e6 3.03e6 3.01e6 2.99e6 2.97e6 2.95e6
     7 ./dat… AND     6.61e4 6.78e4 7.08e4 7.39e4 7.69e4 7.98e4 8.02e4 7.82e4 7.61e4
     8 ./dat… ARB     2.87e8 2.94e8 3.00e8 3.07e8 3.13e8 3.21e8 3.29e8 3.37e8 3.47e8
     9 ./dat… ARE     3.28e6 3.45e6 3.63e6 3.81e6 3.99e6 4.28e6 4.90e6 5.87e6 6.99e6
    10 ./dat… ARG     3.71e7 3.75e7 3.79e7 3.83e7 3.87e7 3.91e7 3.95e7 3.99e7 4.03e7
    # … with 256 more rows, 9 more variables: x2009 <dbl>, x2010 <dbl>,
    #   x2011 <dbl>, x2012 <dbl>, x2013 <dbl>, x2014 <dbl>, x2015 <dbl>,
    #   x2016 <dbl>, x2017 <dbl>, and abbreviated variable name ¹​country_code
…
We’re going to filter for those two countries, then pivot longer because
it’s a time series, then we’re going to turn our year field name into an
integer.

``` r
ready_to_chart <- imported_data_collection_fixed_3 %>%
  filter(country_code %in% c("IND", "CHN")) %>%
  pivot_longer(cols = starts_with("x"), names_to = "the_year", values_to = "pop") %>%
  mutate(the_year = as.integer(str_remove(the_year, "x")))

ready_to_chart
```

    # A tibble: 36 × 4
       file                     country_code the_year        pop
       <chr>                    <chr>           <int>      <dbl>
     1 ./data/importing/CHN.csv CHN              2000 1262645000
     2 ./data/importing/CHN.csv CHN              2001 1271850000
     3 ./data/importing/CHN.csv CHN              2002 1280400000
     4 ./data/importing/CHN.csv CHN              2003 1288400000
     5 ./data/importing/CHN.csv CHN              2004 1296075000
     6 ./data/importing/CHN.csv CHN              2005 1303720000
     7 ./data/importing/CHN.csv CHN              2006 1311020000
     8 ./data/importing/CHN.csv CHN              2007 1317885000
     9 ./data/importing/CHN.csv CHN              2008 1324655000
    10 ./data/importing/CHN.csv CHN              2009 1331260000
    # … with 26 more rows
…
